<svg width="26" height="18" viewBox="0 0 26 18" fill="none" xmlns="http://www.w3.org/2000/svg">
<path fill-rule="evenodd" clip-rule="evenodd" d="M1.28571 0C0.575634 0 0 0.575634 0 1.28571C0 1.99579 0.575633 2.57143 1.28571 2.57143H24.4286C25.1387 2.57143 25.7143 1.99579 25.7143 1.28571C25.7143 0.575634 25.1387 0 24.4286 0H1.28571ZM0 8.99967C0 8.28959 0.575634 7.71395 1.28571 7.71395H24.4286C25.1387 7.71395 25.7143 8.28959 25.7143 8.99967C25.7143 9.70975 25.1387 10.2854 24.4286 10.2854H1.28571C0.575633 10.2854 0 9.70975 0 8.99967ZM0 16.7144C0 16.0043 0.575634 15.4287 1.28571 15.4287H24.4286C25.1387 15.4287 25.7143 16.0043 25.7143 16.7144C25.7143 17.4245 25.1387 18.0001 24.4286 18.0001H1.28571C0.575633 18.0001 0 17.4245 0 16.7144Z" fill="#11213A"/>
</svg>
