<svg width="14" height="14" viewBox="0 0 14 14" fill="none" xmlns="http://www.w3.org/2000/svg">
<path d="M12.8652 5.07268C12.8304 4.97037 12.7665 4.88047 12.6812 4.81408C12.596 4.74769 12.4932 4.70772 12.3855 4.6991L9.23492 4.44876L7.87158 1.43084C7.82816 1.33363 7.75753 1.25108 7.66823 1.19313C7.57893 1.13517 7.47476 1.10431 7.36831 1.10425C7.26185 1.10419 7.15765 1.13494 7.06828 1.1928C6.97892 1.25065 6.90821 1.33313 6.86468 1.43028L5.50134 4.44876L2.35079 4.6991C2.24493 4.70748 2.14374 4.74619 2.0593 4.81058C1.97487 4.87497 1.91078 4.96233 1.87469 5.06219C1.8386 5.16206 1.83205 5.27021 1.85582 5.3737C1.87958 5.47719 1.93266 5.57164 2.00871 5.64576L4.33694 7.91541L3.51352 11.481C3.48852 11.5889 3.49653 11.7019 3.53652 11.8052C3.57651 11.9085 3.64663 11.9974 3.73778 12.0604C3.82893 12.1234 3.9369 12.1575 4.04769 12.1583C4.15847 12.1592 4.26695 12.1267 4.35905 12.0651L7.36813 10.0591L10.3772 12.0651C10.4713 12.1276 10.5824 12.1598 10.6953 12.1573C10.8083 12.1548 10.9178 12.1178 11.0091 12.0513C11.1004 11.9847 11.1691 11.8918 11.206 11.785C11.2429 11.6782 11.2463 11.5627 11.2155 11.4539L10.2048 7.91707L12.7115 5.66123C12.8757 5.51312 12.9359 5.28212 12.8652 5.07268Z" fill="#BABABA"/>
</svg>
